{
	"fileName": "patch_xz_MALA_000035.jpg",
	"targetType": "patch",
	"plane": "xz",
	"prcStep": "1st",
	"madeDate": "20221109",
	"fileType": "jpg",
	"annotation": {
		"classes": "bounding patch",
		"bbox_id": "patch_patch-2529",
		"bbox_x": "5",
		"bbox_y": "35",
		"bbox_w": "19",
		"bbox_h": "24",
		"bbox_xM": "24",
		"bbox_yM": "256"
	},
	"img_attr": {
		"imgGetTeam": "sbw-2",
		"imgLoc": "Haeundae-gu, Busan, South Korea",
		"imgDev": "ISUNG_GPR_MONITOR",
		"imgSrc": "patch_3D_1st_MALA_patch-2529_2022119.prc3d"
	}
}